<svg xmlns="http://www.w3.org/2000/svg" width="24" height="24" viewBox="0 0 24 24">
    <path fill="#CC071E" fill-rule="evenodd" d="M9 17.557V6.443C9 6.2 9.192 6 9.428 6c.115 0 .224.047.305.131l5.019 5.243c.33.345.33.902 0 1.248l-5.02 5.247a.418.418 0 0 1-.605.003.451.451 0 0 1-.127-.315z"/>
</svg>
